%YAML 1.1
%TAG !u! tag:unity3d.com,2011:
--- !u!21 &2100000
Material:
  serializedVersion: 6
  m_ObjectHideFlags: 0
  m_PrefabParentObject: {fileID: 0}
  m_PrefabInternal: {fileID: 0}
  m_Name: Body_Red
  m_Shader: {fileID: 4800000, guid: 76374158b4c4e5744b394e9290aae693, type: 3}
  m_ShaderKeywords: _COLOR_ON _OUTL_ON
  m_LightmapFlags: 5
  m_EnableInstancingVariants: 0
  m_CustomRenderQueue: -1
  stringTagMap: {}
  disabledShaderPasses: []
  m_SavedProperties:
    serializedVersion: 3
    m_TexEnvs:
    - _MainTex:
        m_Texture: {fileID: 0}
        m_Scale: {x: 1, y: 1}
        m_Offset: {x: 0, y: 0}
    - _ToonShade:
        m_Texture: {fileID: 2800000, guid: a7a5f2c16dd774776bf1d9d82cb24bb9, type: 3}
        m_Scale: {x: 1, y: 1}
        m_Offset: {x: 0, y: 0}
    m_Floats:
    - _Asym: 0
    - _Brightness: 1.14
    - _Cull: 2
    - _Cutoff: 0.5
    - _DS: 0
    - _DetailTex: 0
    - _Outl: 1
    - _Outline: 1.31
    - _TintColor: 1
    - _TrOp: 0
    - _Trans: 0
    - _VertexColor: 0
    m_Colors:
    - _Asymmetry: {r: 0, g: 0.25, b: 0.5, a: 0}
    - _Color: {r: 0.67241377, g: 0.32384634, b: 0.16810344, a: 1}
    - _OutlineColor: {r: 0, g: 0.040882874, b: 0.312, a: 1}
